Super Bowl Squares
…
Lets determine the most common digits

# Gather into a data frame of scores, and calculate the digit
scores <- games %>%
  mutate(digitW = PtsW %% 10, digitL = PtsL %% 10)

scores %>%
  count(digitW, digitL) %>%
  mutate(percent = n / sum(n))

## # A tibble: 98 x 4
##    digitW digitL     n  percent
##     <dbl>  <dbl> <int>    <dbl>
##  1      0      0    23 0.0216  
##  2      0      1     1 0.000937
##  3      0      2     7 0.00656 
##  4      0      3    23 0.0216  
##  5      0      4    15 0.0141  
##  6      0      5     4 0.00375 
##  7      0      6    17 0.0159  
##  8      0      7    43 0.0403  
##  9      0      8     2 0.00187 
## 10      0      9    11 0.0103  
## #  with 88 more rows

We can also calcuate the frequency of certain scores for the winning team and losing team, as well as for the games themselves.

# Calculate frequency of certain scores
scores %>%
  count(PtsW, sort = TRUE)

## # A tibble: 45 x 2
##     PtsW     n
##    <dbl> <int>
##  1    27    95
##  2    24    82
##  3    20    66
##  4    31    64
##  5    30    62
##  6    23    57
##  7    26    56
##  8    34    55
##  9    38    42
## 10    33    40
## #  with 35 more rows

scores %>%
  count(PtsL, sort = TRUE)

## # A tibble: 42 x 2
##     PtsL     n
##    <dbl> <int>
##  1    17   104
##  2    10    98
##  3    20    86
##  4    13    67
##  5    16    67
##  6    14    61
##  7    24    54
##  8    23    53
##  9    21    50
## 10     7    44
## #  with 32 more rows

scores %>%
  count(PtsW, PtsL, sort = TRUE)

## # A tibble: 448 x 3
##     PtsW  PtsL     n
##    <dbl> <dbl> <int>
##  1    20    17    19
##  2    27    20    18
##  3    23    20    17
##  4    27    24    17
##  5    24    10    15
##  6    24    17    14
##  7    31    24    14
##  8    24    21    11
##  9    27    23    10
## 10    30    27    10
## #  with 438 more rows
…
